{
	"response": {
		"status": "ok",
		"userTier": "developer",
		"total": 992,
		"startIndex": 1,
		"pageSize": 10,
		"currentPage": 1,
		"pages": 100,
		"orderBy": "newest",
		"results": [
			{
				"id": "sustainable-business/2017/feb/02/packaging-plastics-pollution-recycling-unilever-dove-marks-spencer",
				"type": "article",
				"sectionId": "sustainable-business",
				"sectionName": "Guardian Sustainable Business",
				"webPublicationDate": "2017-02-02T05:30:21Z",
				"webTitle": "M&S and Unilever promise plastic redesign to cut waste",
				"webUrl": "https://www.theguardian.com/sustainable-business/2017/feb/02/packaging-plastics-pollution-recycling-unilever-dove-marks-spencer",
				"apiUrl": "https://content.guardianapis.com/sustainable-business/2017/feb/02/packaging-plastics-pollution-recycling-unilever-dove-marks-spencer",
				"isHosted": false
			},
			{
				"id": "money/2017/jan/28/reducing-food-waste-app-measuring-spoon-save-hundreds-pounds",
				"type": "article",
				"sectionId": "money",
				"sectionName": "Money",
				"webPublicationDate": "2017-01-28T06:59:48Z",
				"webTitle": "Fighting food waste with an app… and a measuring spoon",
				"webUrl": "https://www.theguardian.com/money/2017/jan/28/reducing-food-waste-app-measuring-spoon-save-hundreds-pounds",
				"apiUrl": "https://content.guardianapis.com/money/2017/jan/28/reducing-food-waste-app-measuring-spoon-save-hundreds-pounds",
				"isHosted": false
			},
			{
				"id": "environment/2017/jan/26/city-of-london-launches-challenge-to-boost-coffee-cup-recycling",
				"type": "article",
				"sectionId": "environment",
				"sectionName": "Environment",
				"webPublicationDate": "2017-01-26T00:01:02Z",
				"webTitle": "City of London launches challenge to boost coffee cup recycling",
				"webUrl": "https://www.theguardian.com/environment/2017/jan/26/city-of-london-launches-challenge-to-boost-coffee-cup-recycling",
				"apiUrl": "https://content.guardianapis.com/environment/2017/jan/26/city-of-london-launches-challenge-to-boost-coffee-cup-recycling",
				"isHosted": false
			},
			{
				"id": "sustainable-business/2017/jan/25/shampoo-bottles-beaches-recycling-ocean-plastics",
				"type": "article",
				"sectionId": "sustainable-business",
				"sectionName": "Guardian Sustainable Business",
				"webPublicationDate": "2017-01-25T05:00:28Z",
				"webTitle": "Shampoo bottle made from ocean plastics hailed as ‘technological breakthrough’",
				"webUrl": "https://www.theguardian.com/sustainable-business/2017/jan/25/shampoo-bottles-beaches-recycling-ocean-plastics",
				"apiUrl": "https://content.guardianapis.com/sustainable-business/2017/jan/25/shampoo-bottles-beaches-recycling-ocean-plastics",
				"isHosted": false
			},
			{
				"id": "sustainable-business/live/2017/jan/05/recycling-rates-uk-declining",
				"type": "liveblog",
				"sectionId": "sustainable-business",
				"sectionName": "Guardian Sustainable Business",
				"webPublicationDate": "2017-01-19T14:24:34Z",
				"webTitle": "How can we reverse the UK's falling recycling rates? Read what happened during our Q&A",
				"webUrl": "https://www.theguardian.com/sustainable-business/live/2017/jan/05/recycling-rates-uk-declining",
				"apiUrl": "https://content.guardianapis.com/sustainable-business/live/2017/jan/05/recycling-rates-uk-declining",
				"isHosted": false
			},
			{
				"id": "tv-and-radio/2017/jan/19/bbc-blue-peter-badges-made-yoghurt-pots",
				"type": "article",
				"sectionId": "tv-and-radio",
				"sectionName": "Television & radio",
				"webPublicationDate": "2017-01-19T00:01:22Z",
				"webTitle": "Here's one we ate earlier: Blue Peter badges to be made from yoghurt pots",
				"webUrl": "https://www.theguardian.com/tv-and-radio/2017/jan/19/bbc-blue-peter-badges-made-yoghurt-pots",
				"apiUrl": "https://content.guardianapis.com/tv-and-radio/2017/jan/19/bbc-blue-peter-badges-made-yoghurt-pots",
				"isHosted": false
			},
			{
				"id": "environment/2017/jan/16/chinas-booming-middle-class-drives-asias-toxic-e-waste-mountains",
				"type": "article",
				"sectionId": "environment",
				"sectionName": "Environment",
				"webPublicationDate": "2017-01-16T06:00:16Z",
				"webTitle": "China's booming middle class drives Asia's toxic e-waste mountains",
				"webUrl": "https://www.theguardian.com/environment/2017/jan/16/chinas-booming-middle-class-drives-asias-toxic-e-waste-mountains",
				"apiUrl": "https://content.guardianapis.com/environment/2017/jan/16/chinas-booming-middle-class-drives-asias-toxic-e-waste-mountains",
				"isHosted": false
			},
			{
				"id": "environment/2017/jan/10/uk-throwing-away-13bn-of-food-each-year-latest-figures-show",
				"type": "article",
				"sectionId": "environment",
				"sectionName": "Environment",
				"webPublicationDate": "2017-01-10T00:01:18Z",
				"webTitle": "UK throwing away £13bn of food each year, latest figures show",
				"webUrl": "https://www.theguardian.com/environment/2017/jan/10/uk-throwing-away-13bn-of-food-each-year-latest-figures-show",
				"apiUrl": "https://content.guardianapis.com/environment/2017/jan/10/uk-throwing-away-13bn-of-food-each-year-latest-figures-show",
				"isHosted": false
			},
			{
				"id": "sustainable-business/2016/dec/22/packaging-guilt-recycling-solutions",
				"type": "article",
				"sectionId": "sustainable-business",
				"sectionName": "Guardian Sustainable Business",
				"webPublicationDate": "2016-12-22T05:00:37Z",
				"webTitle": "Four ways to tackle our packaging guilt",
				"webUrl": "https://www.theguardian.com/sustainable-business/2016/dec/22/packaging-guilt-recycling-solutions",
				"apiUrl": "https://content.guardianapis.com/sustainable-business/2016/dec/22/packaging-guilt-recycling-solutions",
				"isHosted": false
			},
			{
				"id": "environment/2016/dec/15/recycling-rates-england-drop-first-time",
				"type": "article",
				"sectionId": "environment",
				"sectionName": "Environment",
				"webPublicationDate": "2016-12-15T12:01:34Z",
				"webTitle": "Recycling rates in England drop for first time",
				"webUrl": "https://www.theguardian.com/environment/2016/dec/15/recycling-rates-england-drop-first-time",
				"apiUrl": "https://content.guardianapis.com/environment/2016/dec/15/recycling-rates-england-drop-first-time",
				"isHosted": false
			}
		]
	}
